\relax 
\providecommand\zref@newlabel[2]{}
\providecommand\hyper@newdestlabel[2]{}
\providecommand\HyperFirstAtBeginDocument{\AtBeginDocument}
\HyperFirstAtBeginDocument{\ifx\hyper@anchor\@undefined
\global\let\oldcontentsline\contentsline
\gdef\contentsline#1#2#3#4{\oldcontentsline{#1}{#2}{#3}}
\global\let\oldnewlabel\newlabel
\gdef\newlabel#1#2{\newlabelxx{#1}#2}
\gdef\newlabelxx#1#2#3#4#5#6{\oldnewlabel{#1}{{#2}{#3}}}
\AtEndDocument{\ifx\hyper@anchor\@undefined
\let\contentsline\oldcontentsline
\let\newlabel\oldnewlabel
\fi}
\fi}
\global\let\hyper@last\relax 
\gdef\HyperFirstAtBeginDocument#1{#1}
\providecommand\HyField@AuxAddToFields[1]{}
\providecommand\HyField@AuxAddToCoFields[2]{}
\providecommand \oddpage@label [2]{}
\citation{why}
\citation{ai-acc-0}
\citation{ai-acc-1}
\citation{ai-acc-2}
\citation{ai-acc-3}
\citation{ai-acc-4}
\citation{w-dsp}
\citation{ai-acc-6}
\@writefile{toc}{\contentsline {chapter}{\numberline {1}Giới thiệu về AI accelerator}{5}{chapter.1}\protected@file@percent }
\@writefile{lof}{\addvspace {10\p@ }}
\@writefile{lot}{\addvspace {10\p@ }}
\@writefile{loa}{\addvspace {10\p@ }}
\citation{ai-acc-13}
\citation{ai-acc-22}
\citation{ai-acc-10}
\citation{ai-acc-32}
\citation{ai-acc-30}
\citation{ai-acc-34}
\citation{apple-4}
\citation{apple-1}
\citation{apple-2}
\citation{apple-3}
\@writefile{toc}{\contentsline {chapter}{\numberline {2}Một số processor chuyên dụng để tăng tốc cho AI/ML}{7}{chapter.2}\protected@file@percent }
\@writefile{lof}{\addvspace {10\p@ }}
\@writefile{lot}{\addvspace {10\p@ }}
\@writefile{loa}{\addvspace {10\p@ }}
\@writefile{toc}{\contentsline {section}{\numberline {2.1}APPLE A12 \& A13 BIONIC CHIP}{7}{section.2.1}\protected@file@percent }
\@writefile{toc}{\contentsline {subsection}{\numberline {2.1.1}Giới thiệu}{7}{subsection.2.1.1}\protected@file@percent }
\@writefile{lof}{\contentsline {figure}{\numberline {2.1}{\ignorespaces A12 Bionic (trái) và A13 Bionic (phải)\relax }}{7}{figure.caption.4}\protected@file@percent }
\@writefile{toc}{\contentsline {subsection}{\numberline {2.1.2}Cấu tạo}{8}{subsection.2.1.2}\protected@file@percent }
\citation{apple-2}
\@writefile{lof}{\contentsline {figure}{\numberline {2.2}{\ignorespaces Cấu tạo chip A12 Bionic\relax }}{9}{figure.caption.5}\protected@file@percent }
\@writefile{lof}{\contentsline {figure}{\numberline {2.3}{\ignorespaces Cấu tạo chip A13 Bionic\relax }}{9}{figure.caption.6}\protected@file@percent }
\citation{apple-2}
\@writefile{toc}{\contentsline {subsection}{\numberline {2.1.3}Tăng tốc độ cho AI/ML}{10}{subsection.2.1.3}\protected@file@percent }
\@writefile{lof}{\contentsline {figure}{\numberline {2.4}{\ignorespaces Bộ điều khiển máy học của A13\relax }}{10}{figure.caption.7}\protected@file@percent }
\@writefile{toc}{\contentsline {subsubsection}{\numberline {2.1.3.1}Về GPU}{10}{subsubsection.2.1.3.1}\protected@file@percent }
\citation{apple-5}
\citation{apple-5}
\@writefile{lof}{\contentsline {figure}{\numberline {2.5}{\ignorespaces So sánh hiệu suất tính toán của GPU giữa A11 (IPhone X), A12 (IPhone XS) và A12 Bionic (IPhone 11 Pro)\relax }}{11}{figure.caption.8}\protected@file@percent }
\@writefile{toc}{\contentsline {subsubsection}{\numberline {2.1.3.2}Về Neural Engine}{11}{subsubsection.2.1.3.2}\protected@file@percent }
\@writefile{toc}{\contentsline {subsubsection}{\numberline {2.1.3.3}Về CPU}{11}{subsubsection.2.1.3.3}\protected@file@percent }
\citation{apple-5}
\citation{apple-3}
\citation{intel-npp-1}
\@writefile{lof}{\contentsline {figure}{\numberline {2.6}{\ignorespaces Hai bộ tăng tốc machine learning ở A13 Bionic\relax }}{12}{figure.caption.9}\protected@file@percent }
\@writefile{toc}{\contentsline {subsubsection}{\numberline {2.1.3.4}Kết luận: So sánh tổng quát Apple A13 Bionic với Apple A12 Bionic}{12}{subsubsection.2.1.3.4}\protected@file@percent }
\@writefile{toc}{\contentsline {section}{\numberline {2.2}Intel Nervana Neural Network Processor}{12}{section.2.2}\protected@file@percent }
\@writefile{toc}{\contentsline {subsection}{\numberline {2.2.1}Tổng quan}{12}{subsection.2.2.1}\protected@file@percent }
\citation{intel-npp-2}
\citation{intel-npp-2}
\citation{intel-npp-3}
\@writefile{toc}{\contentsline {subsection}{\numberline {2.2.2}Intel NNP-T 1000 (Spring Crest)}{13}{subsection.2.2.2}\protected@file@percent }
\@writefile{lof}{\contentsline {figure}{\numberline {2.7}{\ignorespaces Bộ xử lý Intel Nervana NNP-T\relax }}{13}{figure.caption.10}\protected@file@percent }
\@writefile{toc}{\contentsline {subsubsection}{\numberline {2.2.2.1}Thiết kế Spring Crest}{13}{subsubsection.2.2.2.1}\protected@file@percent }
\citation{intel-npp-3}
\citation{intel-npp-4}
\@writefile{lof}{\contentsline {figure}{\numberline {2.8}{\ignorespaces Thiết kế chip NNP-T\relax }}{14}{figure.caption.11}\protected@file@percent }
\@writefile{toc}{\contentsline {subsubsection}{\numberline {2.2.2.2}Hiệu năng}{14}{subsubsection.2.2.2.2}\protected@file@percent }
\@writefile{lof}{\contentsline {figure}{\numberline {2.9}{\ignorespaces Hiệu năng của Spring Crest khi thực hiện GEMM (nhân ma trận) với các kích thước khác nhau\relax }}{14}{figure.caption.12}\protected@file@percent }
\citation{intel-npp-2}
\citation{intel-npp-4}
\citation{intel-npp-3}
\citation{intel-npp-4}
\citation{intel-npp-3}
\citation{intel-npp-4}
\citation{intel-npp-4}
\citation{intel-npp-3}
\citation{intel-npp-3}
\@writefile{lof}{\contentsline {figure}{\numberline {2.10}{\ignorespaces Hiệu năng khi thực hiện tích chập\relax }}{15}{figure.caption.13}\protected@file@percent }
\@writefile{toc}{\contentsline {subsection}{\numberline {2.2.3}Intel NNP-I 1000 (Spring Hill)}{15}{subsection.2.2.3}\protected@file@percent }
\@writefile{lof}{\contentsline {figure}{\numberline {2.11}{\ignorespaces Bộ xử lý Intel Nervana NNP-I1000\relax }}{15}{figure.caption.14}\protected@file@percent }
\@writefile{toc}{\contentsline {subsubsection}{\numberline {2.2.3.1}Thiết kế Spring Hill}{15}{subsubsection.2.2.3.1}\protected@file@percent }
\citation{intel-npp-3}
\citation{intel-npp-4}
\citation{intel-npp-4}
\@writefile{lof}{\contentsline {figure}{\numberline {2.12}{\ignorespaces Thiết kế chip NNP-I \cite  {intel-npp-3}\relax }}{16}{figure.caption.15}\protected@file@percent }
\citation{intel-npp-3}
\citation{gpu-1}
\@writefile{lof}{\contentsline {figure}{\numberline {2.13}{\ignorespaces Thiết kế mỗi bộ ICE \cite  {intel-npp-4}\relax }}{17}{figure.caption.16}\protected@file@percent }
\@writefile{toc}{\contentsline {subsubsection}{\numberline {2.2.3.2}Hiệu năng}{17}{subsubsection.2.2.3.2}\protected@file@percent }
\@writefile{toc}{\contentsline {section}{\numberline {2.3}NVIDIA Tesla}{17}{section.2.3}\protected@file@percent }
\@writefile{toc}{\contentsline {subsection}{\numberline {2.3.1}Lợi thế của GPU so với CPU trong việc tăng tốc AI/ML}{17}{subsection.2.3.1}\protected@file@percent }
\@writefile{lof}{\contentsline {figure}{\numberline {2.14}{\ignorespaces So sánh kiến trúc của CPU và GPU\relax }}{17}{figure.caption.17}\protected@file@percent }
\citation{gpu-2}
\citation{gpu-3}
\citation{gpu-3}
\@writefile{toc}{\contentsline {subsection}{\numberline {2.3.2}NVIDIA Tesla v100}{18}{subsection.2.3.2}\protected@file@percent }
\@writefile{lof}{\contentsline {figure}{\numberline {2.15}{\ignorespaces NVIDIA Tesla v100\relax }}{18}{figure.caption.18}\protected@file@percent }
\@writefile{toc}{\contentsline {subsection}{\numberline {2.3.3}Kiến trúc phần cứng V100 GPU}{18}{subsection.2.3.3}\protected@file@percent }
\citation{gpu-3}
\@writefile{lof}{\contentsline {figure}{\numberline {2.16}{\ignorespaces Kiến trúc Volta \cite  {gpu-3}\relax }}{19}{figure.caption.19}\protected@file@percent }
\@writefile{toc}{\contentsline {subsection}{\numberline {2.3.4}Volta Streaming Multiprocessor}{19}{subsection.2.3.4}\protected@file@percent }
\citation{gpu-3}
\@writefile{lof}{\contentsline {figure}{\numberline {2.17}{\ignorespaces Streaming Multi Processor\relax }}{20}{figure.caption.20}\protected@file@percent }
\@writefile{toc}{\contentsline {subsection}{\numberline {2.3.5}Tensor Cores}{20}{subsection.2.3.5}\protected@file@percent }
\citation{w-tpu}
\citation{w-tpu-1}
\citation{w-tpu-2}
\citation{w-tpu-5}
\citation{w-tpu-6}
\@writefile{lof}{\contentsline {figure}{\numberline {2.18}{\ignorespaces Benchmark Tesla P100 vs Tesla V100\relax }}{21}{figure.caption.21}\protected@file@percent }
\@writefile{toc}{\contentsline {section}{\numberline {2.4}Google Tensor Processing Unit}{21}{section.2.4}\protected@file@percent }
\@writefile{lof}{\contentsline {figure}{\numberline {2.19}{\ignorespaces Tensor Processing Unit Board\relax }}{21}{figure.caption.22}\protected@file@percent }
\citation{w-tpu-8}
\citation{w-tpu-9}
\citation{w-tpu-10}
\citation{w-tpu-9}
\citation{w-tpu-9}
\@writefile{toc}{\contentsline {subsection}{\numberline {2.4.1}Sơ lược}{22}{subsection.2.4.1}\protected@file@percent }
\@writefile{lof}{\contentsline {figure}{\numberline {2.20}{\ignorespaces Server được gắn nhiều TPU được dùng để đánh bại Lee Sedol\relax }}{22}{figure.caption.23}\protected@file@percent }
\citation{w-tpu-8}
\citation{w-tpu-8}
\@writefile{toc}{\contentsline {subsection}{\numberline {2.4.2}Các thế hệ TPU}{23}{subsection.2.4.2}\protected@file@percent }
\@writefile{toc}{\contentsline {subsubsection}{\numberline {2.4.2.1}Thế hệ đầu tiên}{23}{subsubsection.2.4.2.1}\protected@file@percent }
\@writefile{lof}{\contentsline {figure}{\numberline {2.21}{\ignorespaces Mô hình TPU\cite  {w-tpu-9}\relax }}{23}{figure.caption.24}\protected@file@percent }
\citation{w-tpu-10}
\@writefile{lof}{\contentsline {figure}{\numberline {2.22}{\ignorespaces Sơ đồ thực thi systolic array\relax }}{24}{figure.caption.25}\protected@file@percent }
\@writefile{lof}{\contentsline {figure}{\numberline {2.23}{\ignorespaces Tỷ số hiệu suất inference/TDP của TPU so với CPU và GPU tiêu biểu trên server \cite  {w-tpu-8}\relax }}{24}{figure.caption.26}\protected@file@percent }
\citation{w-tpu-14}
\citation{w-tpu-15}
\@writefile{toc}{\contentsline {subsubsection}{\numberline {2.4.2.2}Thế hệ thứ hai}{25}{subsubsection.2.4.2.2}\protected@file@percent }
\@writefile{lof}{\contentsline {figure}{\numberline {2.24}{\ignorespaces TPU thế hệ 2\relax }}{25}{figure.caption.27}\protected@file@percent }
\@writefile{toc}{\contentsline {subsubsection}{\numberline {2.4.2.3}Thế hệ thứ ba}{25}{subsubsection.2.4.2.3}\protected@file@percent }
\@writefile{lof}{\contentsline {figure}{\numberline {2.25}{\ignorespaces TPU thế hệ 3\relax }}{25}{figure.caption.28}\protected@file@percent }
\@writefile{toc}{\contentsline {subsubsection}{\numberline {2.4.2.4}Edge TPU}{25}{subsubsection.2.4.2.4}\protected@file@percent }
\citation{w-tpu-16}
\citation{w-transfer-learning}
\citation{w-tpu-17}
\citation{tensorflow-qa-train}
\citation{w-tpu-15}
\citation{w-tpu-15}
\@writefile{lof}{\contentsline {figure}{\numberline {2.26}{\ignorespaces Bộ Edge TPU Development Kit\relax }}{26}{figure.caption.29}\protected@file@percent }
\citation{w-tpu-21}
\@writefile{lof}{\contentsline {figure}{\numberline {2.27}{\ignorespaces Thời gian mất cho mỗi suy luận (inference) tính bằng ms \cite  {w-tpu-15}\relax }}{27}{figure.caption.30}\protected@file@percent }
\bibcite{why}{1}
\bibcite{ai-acc-0}{2}
\bibcite{ai-acc-1}{3}
\bibcite{ai-acc-2}{4}
\bibcite{ai-acc-3}{5}
\bibcite{ai-acc-4}{6}
\bibcite{ai-acc-5}{7}
\bibcite{ai-acc-6}{8}
\bibcite{w-dsp}{9}
\bibcite{ai-acc-13}{10}
\bibcite{ai-acc-17}{11}
\bibcite{ai-acc-20}{12}
\bibcite{ai-acc-22}{13}
\bibcite{ai-acc-10}{14}
\bibcite{ai-acc-30}{15}
\bibcite{ai-acc-32}{16}
\bibcite{ai-acc-34}{17}
\bibcite{apple-1}{18}
\bibcite{apple-2}{19}
\bibcite{apple-3}{20}
\bibcite{apple-4}{21}
\bibcite{apple-5}{22}
\bibcite{intel-npp-1}{23}
\bibcite{intel-npp-2}{24}
\bibcite{intel-npp-3}{25}
\bibcite{intel-npp-4}{26}
\bibcite{gpu-1}{27}
\bibcite{gpu-2}{28}
\bibcite{gpu-3}{29}
\bibcite{w-tpu}{30}
\bibcite{w-tpu-1}{31}
\bibcite{w-tpu-2}{32}
\bibcite{w-tpu-5}{33}
\bibcite{w-tpu-6}{34}
\bibcite{w-tpu-8}{35}
\bibcite{w-tpu-9}{36}
\bibcite{w-tpu-10}{37}
\bibcite{w-tpu-14}{38}
\bibcite{w-tpu-15}{39}
\bibcite{w-tpu-16}{40}
\bibcite{w-transfer-learning}{41}
\bibcite{w-tpu-17}{42}
\bibcite{tensorflow-qa-train}{43}
\bibcite{w-tpu-21}{44}
\newlabel{LastPage}{{}{31}{}{page.31}{}}
\xdef\lastpage@lastpage{31}
\xdef\lastpage@lastpageHy{31}
